<?xml version="1.0" encoding="UTF-8" standalone="no"?>
<svg
   xmlns:dc="http://purl.org/dc/elements/1.1/"
   xmlns:cc="http://creativecommons.org/ns#"
   xmlns:rdf="http://www.w3.org/1999/02/22-rdf-syntax-ns#"
   xmlns:svg="http://www.w3.org/2000/svg"
   xmlns="http://www.w3.org/2000/svg"
   xmlns:sodipodi="http://sodipodi.sourceforge.net/DTD/sodipodi-0.dtd"
   xmlns:inkscape="http://www.inkscape.org/namespaces/inkscape"
   sodipodi:docname="writing_text.svg"
   inkscape:version="1.0 (4035a4fb49, 2020-05-01)"
   id="svg8"
   version="1.1"
   viewBox="0 0 210 297"
   height="297mm"
   width="210mm">
  <defs
     id="defs2" />
  <sodipodi:namedview
     inkscape:window-maximized="1"
     inkscape:window-y="0"
     inkscape:window-x="0"
     inkscape:window-height="715"
     inkscape:window-width="1366"
     showgrid="false"
     inkscape:document-rotation="0"
     inkscape:current-layer="layer1"
     inkscape:document-units="mm"
     inkscape:cy="785.39295"
     inkscape:cx="315.15295"
     inkscape:zoom="0.7"
     inkscape:pageshadow="2"
     inkscape:pageopacity="0.0"
     borderopacity="1.0"
     bordercolor="#666666"
     pagecolor="#ffffff"
     id="base" />
  <metadata
     id="metadata5">
    <rdf:RDF>
      <cc:Work
         rdf:about="">
        <dc:format>image/svg+xml</dc:format>
        <dc:type
           rdf:resource="http://purl.org/dc/dcmitype/StillImage" />
        <dc:title></dc:title>
      </cc:Work>
    </rdf:RDF>
  </metadata>
  <g
     id="layer1"
     inkscape:groupmode="layer"
     inkscape:label="Layer 1">
    <text
       xml:space="preserve"
       style="font-style:normal;font-variant:normal;font-weight:normal;font-stretch:normal;font-size:10.5833px;line-height:10.81px;font-family:'Jost*';-inkscape-font-specification:'Jost*, Normal';font-variant-ligatures:normal;font-variant-caps:normal;font-variant-numeric:normal;font-variant-east-asian:normal;font-feature-settings:&quot;ss01&quot;;letter-spacing:0px;word-spacing:0px;writing-mode:lr-tb;fill:#808080;stroke:none;stroke-width:0.264583px;stroke-linecap:butt;stroke-linejoin:miter;stroke-opacity:1"
       x="13.375307"
       y="83.032692"
       id="text1048"><tspan
         sodipodi:role="line"
         id="tspan1046"
         x="13.375307"
         y="83.032692"
         style="font-style:normal;font-variant:normal;font-weight:normal;font-stretch:normal;font-size:10.5833px;font-family:'Jost*';-inkscape-font-specification:'Jost*, Normal';font-variant-ligatures:normal;font-variant-caps:normal;font-variant-numeric:normal;font-variant-east-asian:normal;font-feature-settings:&quot;ss01&quot;;fill:#808080;stroke:none;stroke-width:0.264583px">I write my text straight to the canvas</tspan><tspan
         id="tspan1050"
         sodipodi:role="line"
         x="13.375307"
         y="93.84269"
         style="font-style:normal;font-variant:normal;font-weight:normal;font-stretch:normal;font-size:10.5833px;font-family:'Jost*';-inkscape-font-specification:'Jost*, Normal';font-variant-ligatures:normal;font-variant-caps:normal;font-variant-numeric:normal;font-variant-east-asian:normal;font-feature-settings:&quot;ss01&quot;;fill:#808080;stroke:none;stroke-width:0.264583px">I hit Enter if I need to create a new line</tspan></text>
    <text
       id="text1044"
       y="40.821426"
       x="13.375307"
       style="font-style:normal;font-variant:normal;font-weight:normal;font-stretch:normal;font-size:10.5833px;line-height:6.61458px;font-family:'Jost*';-inkscape-font-specification:'Jost*, Normal';font-variant-ligatures:normal;font-variant-caps:normal;font-variant-numeric:normal;font-variant-east-asian:normal;font-feature-settings:&quot;ss01&quot;;letter-spacing:0px;word-spacing:0px;writing-mode:lr-tb;fill:#808080;stroke:none;stroke-width:0.264583px;stroke-linecap:butt;stroke-linejoin:miter;stroke-opacity:1"
       xml:space="preserve"><tspan
         style="font-style:normal;font-variant:normal;font-weight:normal;font-stretch:normal;font-size:10.5833px;font-family:'Jost*';-inkscape-font-specification:'Jost*, Normal';font-variant-ligatures:normal;font-variant-caps:normal;font-variant-numeric:normal;font-variant-east-asian:normal;font-feature-settings:&quot;ss01&quot;;fill:#808080;stroke:none;stroke-width:0.264583px"
         y="40.821426"
         x="13.375307"
         id="tspan1042"
         sodipodi:role="line">I write my text straight to the canvas</tspan></text>
    <flowRoot
       transform="translate(-2.7017214,104.57964)"
       xml:space="preserve"
       id="flowRoot1066"
       style="font-size:10.5833px;line-height:10.81px;font-family:'Jost*';-inkscape-font-specification:'Jost*';letter-spacing:0px;word-spacing:0px;writing-mode:lr-tb;fill:#808080;stroke:none;stroke-width:0.264583px;stroke-linecap:butt;stroke-linejoin:miter;stroke-opacity:1"><flowRegion
         id="flowRegion1062"
         style="fill:#808080;stroke:none"><rect
           id="rect1060"
           width="114.16811"
           height="40.467155"
           x="16.848669"
           y="82.051743"
           style="fill:#808080;stroke:none;stroke-width:0.264583" /></flowRegion><flowPara
         id="flowPara1064"
         style="font-style:normal;font-variant:normal;font-weight:normal;font-stretch:normal;font-size:10.5833px;font-family:'Jost*';-inkscape-font-specification:'Jost*, Normal';font-variant-ligatures:normal;font-variant-caps:normal;font-variant-numeric:normal;font-variant-east-asian:normal;font-feature-settings:&quot;ss01&quot;">Or I create a frame in which the whole text must fit</flowPara></flowRoot>
    <flowRoot
       transform="translate(-2.6488049,42.738052)"
       style="font-size:10.5833px;line-height:10.81px;font-family:'Jost*';-inkscape-font-specification:'Jost*';letter-spacing:0px;word-spacing:0px;writing-mode:lr-tb;fill:#808080;stroke:none;stroke-width:0.264583px;stroke-linecap:butt;stroke-linejoin:miter;stroke-opacity:1"
       id="flowRoot1052"
       xml:space="preserve"><flowRegion
         style="fill:#808080;stroke:none"
         id="flowRegion1054"><rect
           style="fill:#808080;stroke:none;stroke-width:0.264583"
           y="82.051743"
           x="16.848669"
           height="37.631535"
           width="68.923477"
           id="rect1056" /></flowRegion><flowPara
         style="font-style:normal;font-variant:normal;font-weight:normal;font-stretch:normal;font-size:10.5833px;font-family:'Jost*';-inkscape-font-specification:'Jost*, Normal';font-variant-ligatures:normal;font-variant-caps:normal;font-variant-numeric:normal;font-variant-east-asian:normal;font-feature-settings:&quot;ss01&quot;"
         id="flowPara1058">Or I create a frame in which the whole text must fit</flowPara></flowRoot>
    <flowRoot
       transform="translate(5.4924066)"
       style="font-size:4.23333px;line-height:4.15px;font-family:'Jost*';-inkscape-font-specification:'Jost*';letter-spacing:0px;word-spacing:0px;writing-mode:lr-tb;fill:none;stroke:#000000;stroke-width:0.264583px;stroke-linecap:butt;stroke-linejoin:miter;stroke-opacity:1"
       id="flowRoot1068"
       xml:space="preserve"><flowRegion
         id="flowRegion1070"><rect
           style="stroke-width:0.264583"
           y="274.7887"
           x="8.7539301"
           height="14.801538"
           width="195.57999"
           id="rect1072" /></flowRegion><flowPara
         style="font-size:4.23333px;fill:#808080;stroke:none"
         id="flowPara1074">This file uses the Jost* font available under the SIL Open Font License 1.1 from</flowPara><flowPara
         style="font-size:4.23333px;fill:#808080;stroke:none"
         id="flowPara1076">https://indestructibletype.com/Jost.html</flowPara></flowRoot>
  </g>
</svg>
