<?xml version="1.0" encoding="UTF-8" standalone="no"?>
<svg xmlns:rdf="http://www.w3.org/1999/02/22-rdf-syntax-ns#" xmlns="http://www.w3.org/2000/svg" version="1.1" xmlns:cc="http://creativecommons.org/ns#" viewBox="0 0 15.6719 15.6735" xmlns:dc="http://purl.org/dc/elements/1.1/">
<metadata>
<rdf:RDF>
<cc:Work rdf:about="">
<dc:format>image/svg+xml</dc:format>
<dc:type rdf:resource="http://purl.org/dc/dcmitype/StillImage"/>
</cc:Work>
</rdf:RDF>
</metadata>
<g stroke-width=".7" transform="translate(-305.15,-114.1777)" stroke="#000">
<path stroke-linejoin="round" style="color:#000000" d="m308.4986 119.5635-2.9986-0.0367v9.9744h10v-2.7702m-7.0652-5.4166h-0.9348v6.2117h6.1875v-0.9401m4.752-6.0824c0 2.1757-1.7649 3.9416-3.9395 3.9416-2.1745 0-3.9394-1.7659-3.9394-3.9416 0-2.1759 1.7649-3.9417 3.9394-3.9417 2.1746 0 3.9395 1.7658 3.9395 3.9417zm2.0324-0.004c0 3.2964-2.6754 5.9719-5.9719 5.9719s-5.9719-2.6755-5.9719-5.9719c0-3.2965 2.6754-5.9719 5.9719-5.9719s5.9719 2.6754 5.9719 5.9719z" stroke-linecap="round" fill="none"/>
</g>
</svg>
