<?xml version="1.0" encoding="UTF-8" standalone="no"?>
<svg xmlns:rdf="http://www.w3.org/1999/02/22-rdf-syntax-ns#" xmlns="http://www.w3.org/2000/svg" version="1.1" xmlns:cc="http://creativecommons.org/ns#" viewBox="0 0 12.01931 12.01931" xmlns:dc="http://purl.org/dc/elements/1.1/">
<metadata>
<rdf:RDF>
<cc:Work rdf:about="">
<dc:format>image/svg+xml</dc:format>
<dc:type rdf:resource="http://purl.org/dc/dcmitype/StillImage"/>
</cc:Work>
</rdf:RDF>
</metadata>
<g transform="translate(-577 -360.98072)">
<path d="m578.0001 371.9603a10 10 0 0 1 2.9594 -7.0618 10 10 0 0 1 7.0871 -2.8984l-0.0466 9.9999z" fill-rule="evenodd" stroke="#00f" stroke-miterlimit="1.5" fill="#b0c5da"/>
<rect height="12.01931" width="12.01931" y="360.9807" x="577" fill="none"/>
<rect stroke-linejoin="round" stroke-opacity=".9411765" fill-rule="evenodd" height="3" width="3" stroke="#f00" stroke-linecap="round" stroke-miterlimit="0" y="363" x="580" stroke-width=".9999995" fill="#f77"/>
</g>
</svg>
