<?xml version="1.0" encoding="UTF-8" standalone="no"?>
<svg xmlns:rdf="http://www.w3.org/1999/02/22-rdf-syntax-ns#" xmlns="http://www.w3.org/2000/svg" version="1.1" xmlns:cc="http://creativecommons.org/ns#" xmlns:xlink="http://www.w3.org/1999/xlink" viewBox="0 0 24 24" xmlns:dc="http://purl.org/dc/elements/1.1/">
<metadata>
<rdf:RDF>
<cc:Work rdf:about="">
<dc:format>image/svg+xml</dc:format>
<dc:type rdf:resource="http://purl.org/dc/dcmitype/StillImage"/>
</cc:Work>
</rdf:RDF>
</metadata>
<defs>
<linearGradient id="a" y2="4" gradientUnits="userSpaceOnUse" x2="4" y1="25" x1="30">
<stop stop-color="#fff" offset="0"/>
<stop stop-color="#e2e1e1" offset="1"/>
</linearGradient>
</defs>
<path fill-opacity=".0667" d="m1 1h22l1 1v20l-2 2h-20l-1-1z"/>
<rect stroke-linejoin="round" height="21" width="21" stroke="#000" y=".5" x=".5" fill="url(#a)"/>
<path fill="#fff" d="m2 21h-1v-20h20v1h-19z"/>
<path d="m11.3 19.1h4c3 0 3-5 0-5h-4" stroke="#383838" stroke-linecap="round" fill="none"/>
<path fill="none" stroke="#383838" d="m14.1 19.3v-5.2"/>
<path stroke-linejoin="round" d="m11 8.5 7.5 0.1m-6-2.6h4.2l-1.7 1.5v3c0 0.5-0.5 1-1 1h-1m2-7.7-0.5-0.8m-3.5 2v-1h7.5v1" stroke="#383838" stroke-linecap="round" fill="none"/>
<path fill="#5a5a5a" d="m6.5 20-2.5-3h2v-15h1v15h2z"/>
</svg>
