<?xml version="1.0" encoding="UTF-8" standalone="no"?>
<svg xmlns:rdf="http://www.w3.org/1999/02/22-rdf-syntax-ns#" xmlns="http://www.w3.org/2000/svg" version="1.1" xmlns:cc="http://creativecommons.org/ns#" xmlns:xlink="http://www.w3.org/1999/xlink" viewBox="0 0 16.000493 15.999441" xmlns:dc="http://purl.org/dc/elements/1.1/">
<metadata>
<rdf:RDF>
<cc:Work rdf:about="">
<dc:format>image/svg+xml</dc:format>
<dc:type rdf:resource="http://purl.org/dc/dcmitype/StillImage"/>
</cc:Work>
</rdf:RDF>
</metadata>
<defs>
<linearGradient id="d" y2="221.6924" gradientUnits="userSpaceOnUse" x2="20.35862" gradientTransform="matrix(.625152 0 0 1.007875 -.61217 35.29459)" y1="214.0084" x1="15.15684">
<stop stop-color="#5a5a5a" offset="0"/>
<stop offset="1"/>
</linearGradient>
<linearGradient id="a">
<stop stop-color="#ffbf00" offset="0"/>
<stop stop-color="#fff" offset="1"/>
</linearGradient>
<linearGradient id="b" y2="215.4618" xlink:href="#a" gradientUnits="userSpaceOnUse" x2="16.23219" gradientTransform="matrix(.377364 0 0 .600465 3.962295 123.6837)" y1="220.3433" x1="19.76252"/>
<linearGradient id="c" y2="217.0116" xlink:href="#a" gradientUnits="userSpaceOnUse" x2="19.15613" gradientTransform="matrix(.501399 0 0 1.00217 1.674173 36.50449)" y1="215.6721" x1="17.07591"/>
<radialGradient id="e" cx="171.7755" gradientUnits="userSpaceOnUse" cy="153.063" r="7.469679" gradientTransform="matrix(1.122233,1.252981,-2.05495,1.830229,297.3402,-339.2527)">
<stop stop-color="#fff" offset="0"/>
<stop stop-color="#98b6d3" offset="1"/>
</radialGradient>
</defs>
<g transform="matrix(.996399 0 0 .998403 -4.883163 -247.57111)">
<g transform="matrix(1 0 0 .997925 -.07212 .508815)">
<circle stroke-linejoin="round" style="color:#000000" stroke-width=".9403349" stroke-opacity=".2651297" stroke-linecap="round" transform="matrix(1.00786,0,0,1.007983,-167.1731,96.0569)" stroke="#000" cy="159" cx="179" stroke-miterlimit="0" r="7" fill="none"/>
<rect style="color:#000000" height="16" width="16" y="248.029" x="5.0273" fill="none"/>
<path fill-rule="evenodd" d="m18.03125 259-2.03125 2.0312 3 3 2.03125-2.0312-3-3z"/>
<circle stroke-linejoin="round" style="color:#000000" stroke-width=".9931717" fill-rule="evenodd" stroke-linecap="round" transform="matrix(1.00786,0,0,1.007983,-167.8785,95.25998)" stroke="#000" cy="159" cx="179" stroke-miterlimit="0" r="7" fill="url(#e)"/>
</g>
<path d="m74 282h1v-2h2v-1h-3v3z" fill-rule="evenodd" transform="translate(-64.99998,-27)" fill="#fff"/>
<g stroke-linejoin="round" stroke-miterlimit="0">
<rect style="color:#000000" height="5.040684" width="5.000394" stroke="url(#d)" y="251.4922" x="8.45872" stroke-width="1.002607" fill="none"/>
<rect style="color:#000000" fill-rule="evenodd" height="3.010303" width="3.008755" stroke="url(#b)" stroke-linecap="round" y="252.4818" x="9.44998" stroke-width="1.0026073" fill="url(#c)"/>
</g>
<g stroke-linejoin="round" stroke-miterlimit="0" transform="translate(3.000016 2.959313)">
<rect style="color:#000000" height="5.040684" width="5.000394" stroke="url(#d)" y="251.4922" x="8.45872" stroke-width="1.002607" fill="none"/>
<rect style="color:#000000" fill-rule="evenodd" height="3.010303" width="3.008755" stroke="url(#b)" stroke-linecap="round" y="252.4818" x="9.44998" stroke-width="1.0026073" fill="url(#c)"/>
</g>
</g>
</svg>
